%YAML 1.1
%TAG !u! tag:unity3d.com,2011:
--- !u!114 &-7091930061830527688
MonoBehaviour:
  m_ObjectHideFlags: 0
  m_CorrespondingSourceObject: {fileID: 0}
  m_PrefabInstance: {fileID: 0}
  m_PrefabAsset: {fileID: 0}
  m_GameObject: {fileID: 3428488205356316676}
  m_Enabled: 1
  m_EditorHideFlags: 0
  m_Script: {fileID: 11500000, guid: 7d165301c12046f459f91e4f7eb813f7, type: 3}
  m_Name: 
  m_EditorClassIdentifier: 
  baseDamage: 10
--- !u!1001 &7182243680433478246
PrefabInstance:
  m_ObjectHideFlags: 0
  serializedVersion: 2
  m_Modification:
    m_TransformParent: {fileID: 0}
    m_Modifications:
    - target: {fileID: 5492169747575939682, guid: 0e4340f1fb7272b4e9355aa2e62fc21f,
        type: 3}
      propertyPath: m_Name
      value: BouncySheep
      objectReference: {fileID: 0}
    - target: {fileID: 6445184488101834274, guid: 0e4340f1fb7272b4e9355aa2e62fc21f,
        type: 3}
      propertyPath: m_Sprite
      value: 
      objectReference: {fileID: 21300000, guid: b35cb5d758457de488740d3d708cc0e4,
        type: 3}
    - target: {fileID: 6445184488101834274, guid: 0e4340f1fb7272b4e9355aa2e62fc21f,
        type: 3}
      propertyPath: m_Size.x
      value: 6.15
      objectReference: {fileID: 0}
    - target: {fileID: 6445184488101834274, guid: 0e4340f1fb7272b4e9355aa2e62fc21f,
        type: 3}
      propertyPath: m_Size.y
      value: 6.4
      objectReference: {fileID: 0}
    - target: {fileID: 6445184488101834274, guid: 0e4340f1fb7272b4e9355aa2e62fc21f,
        type: 3}
      propertyPath: m_WasSpriteAssigned
      value: 1
      objectReference: {fileID: 0}
    - target: {fileID: 6633284318422692629, guid: 0e4340f1fb7272b4e9355aa2e62fc21f,
        type: 3}
      propertyPath: description
      value: Bounces around like crazy
      objectReference: {fileID: 0}
    - target: {fileID: 6633284318422692629, guid: 0e4340f1fb7272b4e9355aa2e62fc21f,
        type: 3}
      propertyPath: name
      value: Bouncy Sheep
      objectReference: {fileID: 0}
    - target: {fileID: 6633284318422692629, guid: 0e4340f1fb7272b4e9355aa2e62fc21f,
        type: 3}
      propertyPath: sheepName
      value: Boucing sheep
      objectReference: {fileID: 0}
    - target: {fileID: 2429292980882782172, guid: 0e4340f1fb7272b4e9355aa2e62fc21f,
        type: 3}
      propertyPath: m_LocalPosition.x
      value: 0
      objectReference: {fileID: 0}
    - target: {fileID: 2429292980882782172, guid: 0e4340f1fb7272b4e9355aa2e62fc21f,
        type: 3}
      propertyPath: m_LocalPosition.y
      value: 0
      objectReference: {fileID: 0}
    - target: {fileID: 2429292980882782172, guid: 0e4340f1fb7272b4e9355aa2e62fc21f,
        type: 3}
      propertyPath: m_LocalPosition.z
      value: 0
      objectReference: {fileID: 0}
    - target: {fileID: 2429292980882782172, guid: 0e4340f1fb7272b4e9355aa2e62fc21f,
        type: 3}
      propertyPath: m_LocalRotation.x
      value: 0
      objectReference: {fileID: 0}
    - target: {fileID: 2429292980882782172, guid: 0e4340f1fb7272b4e9355aa2e62fc21f,
        type: 3}
      propertyPath: m_LocalRotation.y
      value: 0
      objectReference: {fileID: 0}
    - target: {fileID: 2429292980882782172, guid: 0e4340f1fb7272b4e9355aa2e62fc21f,
        type: 3}
      propertyPath: m_LocalRotation.z
      value: 0
      objectReference: {fileID: 0}
    - target: {fileID: 2429292980882782172, guid: 0e4340f1fb7272b4e9355aa2e62fc21f,
        type: 3}
      propertyPath: m_LocalRotation.w
      value: 1
      objectReference: {fileID: 0}
    - target: {fileID: 2429292980882782172, guid: 0e4340f1fb7272b4e9355aa2e62fc21f,
        type: 3}
      propertyPath: m_RootOrder
      value: 0
      objectReference: {fileID: 0}
    - target: {fileID: 2429292980882782172, guid: 0e4340f1fb7272b4e9355aa2e62fc21f,
        type: 3}
      propertyPath: m_LocalEulerAnglesHint.x
      value: 0
      objectReference: {fileID: 0}
    - target: {fileID: 2429292980882782172, guid: 0e4340f1fb7272b4e9355aa2e62fc21f,
        type: 3}
      propertyPath: m_LocalEulerAnglesHint.y
      value: 0
      objectReference: {fileID: 0}
    - target: {fileID: 2429292980882782172, guid: 0e4340f1fb7272b4e9355aa2e62fc21f,
        type: 3}
      propertyPath: m_LocalEulerAnglesHint.z
      value: 0
      objectReference: {fileID: 0}
    - target: {fileID: 2301652667497975741, guid: 0e4340f1fb7272b4e9355aa2e62fc21f,
        type: 3}
      propertyPath: m_Material
      value: 
      objectReference: {fileID: 6200000, guid: e98e6c67aee705b4b9175ff795f82d70, type: 2}
    m_RemovedComponents: []
  m_SourcePrefab: {fileID: 100100000, guid: 0e4340f1fb7272b4e9355aa2e62fc21f, type: 3}
--- !u!1 &3428488205356316676 stripped
GameObject:
  m_CorrespondingSourceObject: {fileID: 5492169747575939682, guid: 0e4340f1fb7272b4e9355aa2e62fc21f,
    type: 3}
  m_PrefabInstance: {fileID: 7182243680433478246}
  m_PrefabAsset: {fileID: 0}
